%YAML 1.1
%TAG !u! tag:unity3d.com,2011:
--- !u!1 &5537936399488042831
GameObject:
  m_ObjectHideFlags: 0
  m_CorrespondingSourceObject: {fileID: 0}
  m_PrefabInstance: {fileID: 0}
  m_PrefabAsset: {fileID: 0}
  serializedVersion: 6
  m_Component:
  - component: {fileID: 5537936399488042830}
  - component: {fileID: 5537936399488042829}
  m_Layer: 0
  m_Name: Object Pool
  m_TagString: Untagged
  m_Icon: {fileID: 0}
  m_NavMeshLayer: 0
  m_StaticEditorFlags: 0
  m_IsActive: 1
--- !u!4 &5537936399488042830
Transform:
  m_ObjectHideFlags: 0
  m_CorrespondingSourceObject: {fileID: 0}
  m_PrefabInstance: {fileID: 0}
  m_PrefabAsset: {fileID: 0}
  m_GameObject: {fileID: 5537936399488042831}
  m_LocalRotation: {x: 0, y: 0, z: 0, w: 1}
  m_LocalPosition: {x: 0, y: 0, z: 0}
  m_LocalScale: {x: 1, y: 1, z: 1}
  m_Children: []
  m_Father: {fileID: 0}
  m_RootOrder: 0
  m_LocalEulerAnglesHint: {x: 0, y: 0, z: 0}
--- !u!114 &5537936399488042829
MonoBehaviour:
  m_ObjectHideFlags: 0
  m_CorrespondingSourceObject: {fileID: 0}
  m_PrefabInstance: {fileID: 0}
  m_PrefabAsset: {fileID: 0}
  m_GameObject: {fileID: 5537936399488042831}
  m_Enabled: 1
  m_EditorHideFlags: 0
  m_Script: {fileID: 11500000, guid: 0bf2cb82c45b71d4799d9d62b24043a6, type: 3}
  m_Name: 
  m_EditorClassIdentifier: 
  preloadOnAwake: 1
  trs: {fileID: 5537936399488042830}
  spawnEntries:
  - prefab: {fileID: 1059178161569566, guid: b3f78846e76de134f94413bb96580dbb, type: 3}
    trs: {fileID: 4527368504392492, guid: b3f78846e76de134f94413bb96580dbb, type: 3}
    prefabIndex: 0
    preload: 10
  - prefab: {fileID: 890873244134482697, guid: 23c3291eb469b8a4390e7ae21512a188, type: 3}
    trs: {fileID: 8204926392177274992, guid: 23c3291eb469b8a4390e7ae21512a188, type: 3}
    prefabIndex: 0
    preload: 10
